{
  "default": {
    "store": {
      "maxArrayLength": 10
    },
    "archive": {
      "maxRecentEntries": 50
    }
  },
  "nodes": {

    "client": {
      "store": {},
      "archive": {},
      "endpoints": [
        {
          "name": "gitlab",
          "type": "WebApi",
          "dataSource": {
            "externalApi": true,
            "https": true,
            "noWebSocket": true,
            "host": "gitlab.wogra.com",
            "route": "/api/graphql",
            "type": "GQL",
            "header": {
              "content-type": "application/json",
              "authorization": "Bearer tf6ZMCK6Vsg8qatWGyx9"
            }
          }
        }
      ],
      "bridges": [
        {
          "node": "server",
          "apiRoute": "todo"
        }
      ]
    },

    "server": {
      "store": {},
      "archive": {},
      "terminals": [],
      "gateway": {
        "https": false,
        "host": "localhost",
        "port": 4300,
        "route": "/graphql",
        "type": "GQL"
      }
    }
  }
}
